<?xml version="1.0" encoding="utf-8"?>
<!-- Generator: Adobe Illustrator 19.0.0, SVG Export Plug-In . SVG Version: 6.00 Build 0)  -->
<svg version="1.1" id="Capa_1" xmlns="http://www.w3.org/2000/svg" xmlns:xlink="http://www.w3.org/1999/xlink" x="0px" y="0px"
	 viewBox="6 -6 512 512" style="enable-background:new 6 -6 512 512;" xml:space="preserve">
<style type="text/css">
	.st0{fill:#FFFFFF;}
</style>
<g>
	<path class="st0" d="M114.9,5.3C68.8-21.2,31.3,0.5,31.3,53.7v392.6c0,53.2,37.4,74.9,83.6,48.5L458,297.9
		c46.2-26.5,46.2-69.4,0-95.9L114.9,5.3z"/>
</g>
</svg>
